r 
CFE> reset

Resetting board in 0 seconds...HELO
CPUI
L1CI
PLLI
PMCB
HELO
CPUI
L1CI
4.1403ZTE2-4.0.10-117.134
DRAM
----
PHYS
ZQDN
PHYE
DINT
TST1
TST2
PASS
----
ZBSS
L12F
MAIN
FPS0
BT00
0001
BT00
0281
NAN3
RFS2
NAN5


Base: 4.14_03ZTE2
CFE version 4.0.10-117.134 for BCM96838 (32bit,SP,BE)
Build Date: Tue, 16 Jun 2020 14:20:02 +0800 (root@A23176683)
Copyright (C) 2000-2013 Broadcom Corporation.

Chip ID: BCM68380_B0, MIPS: 600MHz, DDR: 333MHz, Bus: 240MHz
RDP: 800MHz
Main Thread: TP0
Total Memory: 268435456 bytes (256MB)
Boot Address: 0xbfc00000

[set_current_board@/home/duanyuanyuan/wk_use/wangkai/Builds_/ZXHN_F680V4.0_BBF_P3T8-f680v4/chip_bcm/kmodule/bcmdrivers/opensource/char/board/bcm963xx/impl1/zte_board.c:1780]:version_id= 64!
ZTE: set to refer board 968380FHGU
NAND flash device: Micron MT29F1G08AAC, id 0x2cf1 block 128KB size 131072KB
ddr_tm_base_address = 0xa0800000
f_initialize_bbh_dma_sdma_related_arrays:(956) errorenable IH Wan-Wan forwarding...
Initializing port 0
Initializing port 1
Initializing port 2
Initializing port 3
Initializing port 4
oren_data_path_go done!!!
bootfrom :dd 2
kerSysGetBootImageState :49
Board IP address                  : 192.168.1.1:ffffff00  
Host IP address                   : 192.168.1.100  
Gateway IP address                :   
Run from flash/host/tftp (f/h/c)  : f  
Default host run file name        : vmlinux  
Default host flash file name      : bcm963xx_fs_kernel  
Boot delay (0-9 seconds)          : 1  
Boot image (1 = rootfs1, 2 = rootfs2) : 2  
Default host ramdisk file name    :   
Default ramdisk store address     :   
Board Id (0-29)                   : 968380FHGU  
Number of MAC Addresses (1-32)    : 10  
Base MAC Address                  : 00:10:18:00:00:00  
PSI Size (1-64) KBytes            : 0  
Enable Backup PSI [0|1]           : 0  
System Log Size (0-256) KBytes    : 0  
Auxillary File System Size Percent: 0  
Main Thread Number [0|1]          : 0  
MC memory allocation (MB)          : 4  
TM memory allocation (MB)          : 20  

*** Press any key to stop auto run (1 seconds) ***
Auto run second count down: 110
Booting from rootfs 2 (0xc1f20000) ...
Correctable ECC Error detected: addr=0x02411200, intrCtrl=0x00000090, accessCtrl=0xF7441010
Correctable ECC Error detected: addr=0x02465800, intrCtrl=0x000000B0, accessCtrl=0xF7441010
Correctable ECC Error detected: addr=0x024ebe00, intrCtrl=0x00000090, accessCtrl=0xF7441010
Decompression OK!
Entry at 0x804118c0
Starting program at 0x804118c0
Linux version 3.4.11-rt19 (root@A23176683) (gcc version 4.6.2 (Buildroot 2011.11) ) #134 SMP PREEMPT Tue Jun 16 14:25:19 CST 2020

*** Voice Board id is not initialized properly ***

968380FHGU prom init
CPU revision is: 0002a080 (Broadcom BMIPS4350)
memsize=242757632,bbx_rsvd_base =242757632,bbx_rsvd_size is=512000
Determined physical RAM map:
 memory: 01400000 @ 0ec00000 (reserved)
 memory: 00400000 @ 0e800000 (reserved)
 memory: 0007d000 @ 0e783000 (reserved)
 memory: 0e783000 @ 00000000 (usable)
Zone PFN ranges:
  DMA      0x00000000 -> 0x00001000
  Normal   0x00001000 -> 0x0000e783
Movable zone start PFN for each node
Early memory PFN ranges
    0: 0x00000000 -> 0x0000e783
On node 0 totalpages: 59267
free_area_init_node: node 0, pgdat 80568d70, node_mem_map 81000000
  DMA zone: 32 pages used for memmap
  DMA zone: 0 pages reserved
  DMA zone: 4064 pages, LIFO batch:0
  Normal zone: 432 pages used for memmap
  Normal zone: 54739 pages, LIFO batch:15
PERCPU: Embedded 7 pages/cpu @811d3000 s5600 r8192 d14880 u32768
pcpu-alloc: s5600 r8192 d14880 u32768 alloc=8*4096
pcpu-alloc: [0] 0 [0] 1 
Built 1 zonelists in Zone order, mobility grouping on.  Total pages: 58803
Kernel command line: ubi.mtd=8 root=ubi:rootfs_ubifs ro rootfstype=ubifs  irqaffinity=0
PID hash table entries: 1024 (order: 0, 4096 bytes)
Dentry cache hash table entries: 32768 (order: 5, 131072 bytes)
Inode-cache hash table entries: 16384 (order: 4, 65536 bytes)
Primary instruction cache 64kB, VIPT, 4-way, linesize 16 bytes.
Primary data cache 32kB, 2-way, VIPT, cache aliases, linesize 16 bytes
Memory: 228720k/237068k available (4166k kernel code, 8348k reserved, 1311k data, 220k init, 0k highmem)
Preemptible hierarchical RCU implementation.
NR_IRQS:256
console [ttyS0] enabled
Allocating memory for DSP module core and initialization code
Allocated DSP module memory - CORE=0x0 SIZE=0, INIT=0x0 SIZE=0
Calibrating delay loop... 598.01 BogoMIPS (lpj=299008)
pid_max: default: 32768 minimum: 301
Mount-cache hash table entries: 512
--Kernel Config--
  SMP=1
  PREEMPT=1
  DEBUG_SPINLOCK=0
  DEBUG_MUTEXES=0
Broadcom Logger v0.1 Jun 16 2020 14:20:19
CPU revision is: 0002a080 (Broadcom BMIPS4350)
Primary instruction cache 64kB, VIPT, 4-way, linesize 16 bytes.
Primary data cache 32kB, 2-way, VIPT, cache aliases, linesize 16 bytes
Brought up 2 CPUs
pdt_cspkernel_init
NET: Registered protocol family 16
1192:57:47 [Klogctl][Info] [(1086)LogCtlInit] LogCtlInit begin
1192:57:47 [Klogctl][Info] [(896)AddLogOutModule] AddLogOutModule:OutputMode=0X00000200,ptLogProcSet=8e03b990
1192:57:47 [Klogstdio][Info] [(1058)LogStdioProcInit] LogStdioProcInit

LogUdpWatchProcInit
PMC Driver Init... done.
<wdt_init>:Starting Watchdog Timer...
<wdt_init>(527):creat proc files for watchdog!!!
registering PCI controller with io_map_base unset
registering PCI controller with io_map_base unset
registering PCI controller with io_map_base unset
bio: create slab <bio-0> at 0
SCSI subsystem initialized
usbcore: registered new interface driver usbfs
usbcore: registered new interface driver hub
usbcore: registered new device driver usb
PCI host bridge to bus 0000:00
pci_bus 0000:00: root bus resource [mem 0xeff00000-0xefffffff]
pci_bus 0000:00: root bus resource [io  0xf1000000-0xf100ffff]
pci 0000:00:09.0: [14e4:6300] type 00 class 0x0c0310
pci 0000:00:09.0: reg 10: [mem 0x15400400-0x154004ff]
pci 0000:00:0a.0: [14e4:6300] type 00 class 0x0c0320
pci 0000:00:0a.0: reg 10: [mem 0x15400300-0x154003ff]
PCI host bridge to bus 0000:01
pci_bus 0000:01: root bus resource [mem 0xd0000000-0xdfffffff]
pci_bus 0000:01: root bus resource [??? 0x00000000 flags 0x0]
pci 0000:01:00.0: [14e4:6838] type 01 class 0x060400
pci 0000:01:00.0: PME# supported from D0 D3hot
pci 0000:02:00.0: [14e4:a8db] type 00 class 0x028000
pci 0000:02:00.0: reg 10: [mem 0x00000000-0x00007fff 64bit]
pci 0000:02:00.0: supports D1 D2
pci 0000:01:00.0: BAR 8: assigned [mem 0xd0000000-0xd00fffff]
pci 0000:02:00.0: BAR 0: assigned [mem 0xd0000000-0xd0007fff 64bit]
pci 0000:01:00.0: PCI bridge to [bus 02-02]
pci 0000:01:00.0:   bridge window [mem 0xd0000000-0xd00fffff]
PCI: Enabling device 0000:01:00.0 (0000 -> 0002)
PCI host bridge to bus 0000:03
pci_bus 0000:03: root bus resource [mem 0xe0000000-0xefefffff]
pci_bus 0000:03: root bus resource [??? 0x00000000 flags 0x0]
pci 0000:03:00.0: [14e4:6838] type 01 class 0x060400
pci 0000:03:00.0: PME# supported from D0 D3hot
pci 0000:03:00.0: PCI bridge to [bus 04-04]
bcmhs_spi bcmhs_spi.1: master is unqueued, this is deprecated
skbFreeTask created successfully
[0;34mBLOG v3.0 Initialized[0m
BLOG Rule v1.0 Initialized
Broadcom IQoS v0.1 Jun 16 2020 14:25:10 initialized
Switching to clocksource MIPS
NET: Registered protocol family 2
IP route cache hash table entries: 2048 (order: 1, 8192 bytes)
TCP established hash table entries: 8192 (order: 4, 65536 bytes)
TCP bind hash table entries: 8192 (order: 4, 65536 bytes)
TCP: Hash tables configured (established 8192 bind 8192)
TCP: reno registered
UDP hash table entries: 128 (order: 0, 4096 bytes)
UDP-Lite hash table entries: 128 (order: 0, 4096 bytes)
NET: Registered protocol family 1
PCI: CLS 16 bytes, default 16
init_bcm_tstamp: unhandled mips_hpt_freq=300000000, adjust constants in bcm_tstamp.c
bcm_tstamp initialized, (hpt_freq=300000000 2us_div=300 2ns_mult=0 2ns_shift=0)
NTFS driver 2.1.30 [Flags: R/W].
jffs2: version 2.2. (NAND) © 2001-2006 Red Hat, Inc.
fuse init (API version 7.18)
msgmni has been set to 446
io scheduler noop registered (default)
bcm963xx_mtd driver v2.0
Failed to read image tag from flash
brcmnanddrv_init: brcmnanddrv_init - NANDCMD=''
Broadcom DSL NAND controller (BrcmNand Controller)
mtd->oobsize=0, mtd->eccOobSize=0
NAND_CS_NAND_XOR=00000000
B4: NandSelect=40000001, nandConfig=15142200, chipSelect=0
brcmnand_read_id: CS0: dev_id=2cf18095
After: NandSelect=40000001, nandConfig=15142200
Block size=00020000, erase shift=17
NAND Config: Reg=15142200, chipSize=128 MB, blockSize=128K, erase_shift=11
busWidth=1, pageSize=2048B, page_shift=11, page_mask=000007ff
timing1 not adjusted: 6574845b
timing2 not adjusted: 00001e96
BrcmNAND mfg 2c f1 MICRON MT29F1G08ABA 128MB on CS0

Found NAND on CS0: ACC=f7441010, cfg=15142200, flashId=2cf18095, tim1=6574845b, tim2=00001e96
BrcmNAND version = 0x80000500 128MB @00000000
brcmnand_scan: B4 nand_select = 40000001
brcmnand_scan: After nand_select = 40000001
handle_acc_control: default CORR ERR threshold  1 bits
ACC: 16 OOB bytes per 512B ECC step; from ID probe: 16
page_shift=11, bbt_erase_shift=17, chip_shift=27, phys_erase_shift=17
Brcm NAND controller version = 5.0 NAND flash size 128MB @18000000
ECC layout=brcmnand_oob_bch4_2k
brcmnand_scan:  mtd->oobsize=64
brcmnand_scan: oobavail=35, eccsize=512, writesize=2048
brcmnand_scan, eccsize=512, writesize=2048, eccsteps=4, ecclevel=4, eccbytes=7
-->brcmnand_default_bbt
brcmnand_default_bbt: bbt_td = bbt_slc_bch4_main_descr
Bad block table Bbt0 found at page 0000ffc0, version 0x01 for chip on CS0
Bad block table 1tbB found at page 0000ff80, version 0x01 for chip on CS0
brcmnand_reset_corr_threshold: default CORR ERR threshold  1 bits for CS0
brcmnand_reset_corr_threshold: CORR ERR threshold changed to 3 bits for CS0
brcmnandCET: Status -> Deferred
Master size=08000000
***** Found UBIFS Marker at 0x0259ff00
***** Found UBIFS Marker at 0x0029ff00
Part[0] name=whole flash, size=7f00000, ofs=0
Part[1] name=nvram, size=20000, ofs=0
Part[2] name=rootfs1, size=2300000, ofs=20000
Part[3] name=rootfs2, size=2300000, ofs=2320000
Part[4] name=parameter tags, size=400000, ofs=4e20000
Part[5] name=usercfg, size=800000, ofs=4620000
Part[6] name=middle ware, size=400000, ofs=5220000
Part[7] name=others, size=100000, ofs=5620000
Part[8] name=ubifs, size=2080000, ofs=25a0000
Part[9] name=spare_bootfs, size=280000, ofs=20000
Creating 10 MTD partitions on "brcmnand.0":
0x000000000000-0x000007f00000 : "whole flash"
0x000000000000-0x000000020000 : "nvram"
0x000000020000-0x000002320000 : "rootfs1"
0x000002320000-0x000004620000 : "rootfs2"
0x000004e20000-0x000005220000 : "parameter tags"
0x000004620000-0x000004e20000 : "usercfg"
0x000005220000-0x000005620000 : "middle ware"
0x000005620000-0x000005720000 : "others"
0x0000025a0000-0x000004620000 : "ubifs"
0x000000020000-0x0000002a0000 : "spare_bootfs"
UBI: attaching mtd8 to ubi0
UBI: physical eraseblock size:   131072 bytes (128 KiB)
UBI: logical eraseblock size:    126976 bytes
UBI: smallest flash I/O unit:    2048
UBI: VID header offset:          2048 (aligned 2048)
UBI: data offset:                4096
UBI: max. sequence number:       2
UBI: attached mtd8 to ubi0
UBI: MTD device name:            "ubifs"
UBI: MTD device size:            32 MiB
UBI: number of good PEBs:        260
UBI: number of bad PEBs:         0
UBI: number of corrupted PEBs:   0
UBI: max. allowed volumes:       128
UBI: wear-leveling threshold:    4096
UBI: number of internal volumes: 1
UBI: number of user volumes:     1
UBI: available PEBs:             0
UBI: total number of reserved PEBs: 260
UBI: number of PEBs reserved for bad PEB handling: 2
UBI: max/mean erase counter: 1/0
UBI: image sequence number:  0
UBI: background thread "ubi_bgt0d" started, PID 233
usbcore: registered new interface driver usblp
i2c /dev entries driver
brcmboard: brcm_board_init entry
Failed to create a netlink socket for monitor
[set_current_board@/home/duanyuanyuan/wk_use/wangkai/Builds_/ZXHN_F680V4.0_BBF_P3T8-f680v4/chip_bcm/kmodule/bcmdrivers/opensource/char/board/bcm963xx/bcm96838/zte_board.c:1780]:version_id= 65!
enable watchdog
Serial: BCM63XX driver $Revision: 3.00 $
[0;33mMagic SysRq with Auxilliary trigger char enabled (type ^ h for list of supported commands)[0m
ttyS0 at MMIO 0xb4e00500 (irq = 9) is a BCM63XX
ttyS1 at MMIO 0xb4e00520 (irq = 10) is a BCM63XX
nf_conntrack version 0.5.0 (3573 buckets, 8192 max)
ip_tables: (C) 2000-2006 Netfilter Core Team
NET: Registered protocol family 10
ip6_tables: (C) 2000-2006 Netfilter Core Team
NET: Registered protocol family 17
Bridge firewalling registered
Ebtables v2.0 registered
PPP generic driver version 2.4.2
NET: Registered protocol family 24
systools version:v0.7.0
errorEPC = 930a12a4
systools: system cold starting
open systools irqoff trace
zte--oss cpu usage module init
<LOGID000000005>1192:57:48 [KIGMPSNP][Warn] [br_multicast_se(209)br_del_addr_reg] register gIgmpDelAddrHook succeed!
<LOGID000000005>1192:57:48 [KIGMPSNP][Warn] [br_multicast_se(215)br_del_addr_reg] register gMldDelAddrHook succeed!
fastforward_init start !
fastforward_init done !
UBIFS: mounted UBI device 0, volume 0, name "rootfs_ubifs"
UBIFS: mounted read-only
UBIFS: file system size:   30855168 bytes (30132 KiB, 29 MiB, 243 LEBs)
UBIFS: journal size:       9023488 bytes (8812 KiB, 8 MiB, 72 LEBs)
UBIFS: media format:       w4/r0 (latest is w4/r0)
UBIFS: default compressor: zlib
UBIFS: reserved for root:  0 bytes (0 KiB)
VFS: Mounted root (ubifs filesystem) readonly on device 0:10.
Freeing unused kernel memory: 220k freed
init started:  BusyBox v1.01 (2020.06.16-06:30+0000) multi-call binary
Starting pid 264, console /dev/ttyS0: '/etc/init.d/rcS'
Algorithmics/MIPS FPU Emulator v1.5
/etc/default/S00tagparam: 2: : not found
======================================================
mounting /dev/mtdblock4 to /tagparam, wait ...
====================================================== 
Pre-initialization script ...
  Mounting ramdisk at /var
  Mounting /dev/mtdblock5 to /userconfig
jffs2: Empty flash at 0x00125104 ends at 0x00125800
jffs2: Empty flash at 0x0012e95c ends at 0x0012f000
  Mount ok!
Configuring EMACS interfaces
Bringing up interface lo
Bringing up interface mii0
Set promisc for device mii0
1192:57:51 [User][Warn] [ifconfig.c(995)ifconfig] Ioctl failed!SIOCGIFFLAGS
 Configuring with no IP address (i.e. for PPP)
1192:57:52 [User][Warn] [ifconfig.c(995)ifconfig] Ioctl failed!SIOCGIFFLAGS
tagparam_mod: exports duplicate symbol GetIfinfoPara (owned by kernel)
registering usb led module!
gpon_stack: module license 'Proprietary' taints kernel.
Disabling lock debugging due to kernel taint
LOGGER driver Init Done : 0x8e162500
START GPON SerDes Init script
 !!!!   PLL locked !!!!!!     !!!!   RX CDR locked !!!!!!     !!!!   TX CDR locked !!!!!!    GPON SerDes Initialization Sequence Done 
f_initialize_bbh_dma_sdma_related_arrays:(956) errorenable IH Wan-Wan forwarding...
Initializing port 0
Initializing port 1
Initializing port 2
Initializing port 3
Initializing port 4
oren_data_path_go done!!!
rdd_lan_vid_entry_add({vid=0 ag=0 ag_vid=255 ports=0x0}, 0) --> 0
Creating CPU ring for queue number 0 with 128 packets descriptor=0xc04fff20
 Done initializing Ring 0 Base=0xad926080 End=0xad926880 calculated entries= 128 RDD Base=0x0d926080 descriptor=0xc04fff20
PhyAutoEnable port= 0, rate =0 
PhyAutoEnable port= 1, rate =0 
PhyAutoEnable port= 2, rate =0 
PhyAutoEnable port= 3, rate =0 
ERR: rdpa_if_to_rdd_bridge_port#141: Can't map rdpa_if 7 to rdd bridge port
ERR: rdpa_if_to_rdd_bridge_port#141: Can't map rdpa_if 8 to rdd bridge port
ERR: rdpa_if_to_rdd_bridge_port#141: Can't map rdpa_if 9 to rdd bridge port
ERR: rdpa_if_to_rdd_bridge_port#141: Can't map rdpa_if 7 to rdd bridge port
ERR: rdpa_if_to_rdd_bridge_port#141: Can't map rdpa_if 8 to rdd bridge port
ERR: rdpa_if_to_rdd_bridge_port#141: Can't map rdpa_if 9 to rdd bridge port
Broadcom BCM68380_B0 Ethernet Network Device v0.1 Jun 16 2020 14:24:51
dgasp: kerSysRegisterDyingGaspHandler: bcmsw registered 
 vport eth3: MAC Address: 00:10:18:00:00:00
 vport eth2: MAC Address: 00:10:18:00:00:00
 vport eth1: MAC Address: 00:10:18:00:00:00
 vport eth0: MAC Address: 00:10:18:00:00:00

[Debug]: RGMII port is vport 5, force the link status to be 1000Mbps full duplex. 
 vport eth4: MAC Address: 00:10:18:00:00:00
 vport comm: MAC Address: 00:11:22:33:00:00
create_gpon_vport  gpon0 
gpon gpon0: MAC Address: 00:10:18:00:00:01
Creating CPU ring for queue number 3 with 512 packets descriptor=0xc04fffa4
 Done initializing Ring 3 Base=0xadb8c080 End=0xadb8e080 calculated entries= 512 RDD Base=0x0db8c080 descriptor=0xc04fffa4
cpu Ring 3 has been flushed
--SMP support
wl: norm_wmark_tot=3000, pktc_wmark_tot=2048
PCI: Enabling device 0000:02:00.0 (0000 -> 0002)
wl: passivemode=1
wl0: creating kthread wl0-kthrd
[ZTE BIND success wl] ======================thread pid=421,rc=0,processor_id=0
wl: napimode=0
Neither SPROM nor OTP has valid image
wl:srom/otp not programmed, using main memory mapped srom info(wombo board)
wl: ID=pci/2/0/
[read_srom_bootrip] ret=0, real_len=440
28 01 00 00 05 e9 14 e4 00 70 ed be 1c 00 2b 
c4 2a 64 29 64 2c 64 3c e7 46 ff 47 ff 0c 00 08 
20 00 30 10 02 9f 28 5d 44 80 80 1d 8f 00 32 01 
00 df 00 71 f5 84 00 00 83 85 00 20 10 00 01 00 
00 00 00 00 00 00 00 00 00 00 00 00 00 00 00 00 
00 00 00 00 00 10 08 03 05 00 00 00 00 00 00 00 
00 43 a9 80 00 00 02 00 00 1f 30 18 00 00 00 00 
00 00 00 00 00 00 00 00 00 00 00 00 00 00 00 00 
00 53 72 12 52 02 00 00 00 18 00 00 00 00 00 00 
00 00 00 00 00 00 03 ff ff 88 ff ff ff 00 03 02 
02 ff ff 00 33 00 00 00 00 00 00 00 00 00 00 04 
15 00 00 78 00 00 00 00 00 00 00 00 00 00 00 00 
00 20 4a fe 7c 17 55 fa 51 00 00 00 00 00 00 00 
00 00 00 00 00 00 00 00 00 00 00 00 00 00 00 00 
00 20 4a fe 5c 16 59 fa 6b 00 00 00 00 00 00 00 
00 00 00 00 00 00 00 00 00 00 00 00 00 00 00 00 
00 ff ff ff ff ff ff ff ff ff ff ff ff ff ff ff 
ff ff ff ff ff ff ff ff ff ff ff ff ff ff ff ff 
ff ff ff ff ff ff ff ff ff ff ff ff ff ff ff ff 
ff ff ff ff ff ff ff ff ff ff ff ff ff ff ff ff 
ff 00 00 00 00 64 22 00 00 00 00 00 00 00 00 00 
00 00 00 22 00 66 44 22 00 66 44 22 00 66 44 22 
00 66 44 00 00 00 00 00 00 00 00 00 00 00 00 00 
00 00 00 00 00 00 00 00 00 00 00 00 00 00 00 00 
00 00 00 00 00 00 00 00 00 00 00 00 00 00 00 00 
00 00 00 00 00 00 00 00 00 00 00 ff ff ff ff ff 
ff ff ff ff ff ff ff ff ff ff ff ff ff ff ff ff 
ff ff ff ff ff ff ff 7a 08 
init_srom_sw_map: patch srom map with info from rip
srom rev:8
wl: reading /etc/wlan/bcmcmn_nvramvars.bin, file size=32
wl0: allocskbmode=1 currallocskbsz=512
wlan0: Broadcom BCMa8db 802.11 Wireless Controller 6.37.14.4803.cpe4.14L03ZTE2.0-kdb
<4>dgasp: kerSysRegisterDyingGaspHandler: wlan0 registered 
Creating CPU ring for queue number 8 with 1024 packets descriptor=0xc0500080
 Done initializing Ring 8 Base=0xad0f0080 End=0xad0f4080 calculated entries= 1024 RDD Base=0x0d0f0080 descriptor=0xc0500080
[1m[34m Wifi Forwarding Driver initialized !
timer = 500, threshold = 1024 number_of_packets_to_read = 128 fist pci queue 8 number_of_queues = 1
[0mCreating CPU ring for queue number 2 with 32 packets descriptor=0xc04fff78
 Done initializing Ring 2 Base=0xad0e8480 End=0xad0e8680 calculated entries= 32 RDD Base=0x0d0e8480 descriptor=0xc04fff78
[0;34m[NTC ploamFsm] printSerialPasswd: SN=42:52:43:4d:12:34:56:78[0m
[0;34m[NTC ploamFsm] printSerialPasswd: PW=20:20:20:20:20:20:20:20:20:20[0m
dgasp: kerSysRegisterDyingGaspHandler: gpon0 registered 
[0;34m[NTC ploamFsm] bcm_ploamCreate: ploam driver created.[0m
Creating CPU ring for queue number 4 with 64 packets descriptor=0xc04fffd0
 Done initializing Ring 4 Base=0xad0eb880 End=0xad0ebc80 calculated entries= 64 RDD Base=0x0d0eb880 descriptor=0xc04fffd0
zte_api_fast_l3_init: get runner handler 
Get function BCM_FUN_ID_SET_API_GPONapi_module_init()
Init switch module
Init switch module Success
ERR: bdmf_attrelem_set_as_num#1098: gpon: status:Entry already exists. attribute:dba_interval  value:2
bcm_gpon_Init ok
<LOGID000000005>1192:57:58 [KMONITOR][Warn] [monitor.c(617)MontorSendMsg] netlink_unicast failed:msgid = 0xa4a7, ptr =   (null), len = 0
get bob board type:6
get bob board type GN25L95
hexdump: /userconfig/longlaser_cfg: No such file or directory
hexdump: /userconfig/longlaser_cfg: Bad file descriptor
GN25L95          found.
bsp_i2c_probe 0x50 success!
vendor name = ZTE_B+_G 
 optical PN(0x60) = 
 optical PN(0x28) = GN25L95
ethdriver_init....
Loading PCM shim driver

Endpoint: endpoint_init entry
BOS: Enter bosInit 
BOS: Exit bosInit 

BCM68380F_LE9540! boardIdStr=LE9540 baseBoardIdStr=968380FHGU
Endpoint: endpoint_init COMPLETED
===================================================================
region code:79
region name:EKT
USER_CFG is same as ETC_CFG, donot need copy
===================================================================
  Database default setting is [current : 79]
Starting pid 508, console /dev/ttyS0: '/sbin/getty'

F680
Login: jffs2: jffs2_scan_eraseblock(): Magic bitmask 0x1985 not found at 0x0027ff00: 0x4263 instead
jffs2: jffs2_scan_eraseblock(): Magic bitmask 0x1985 not found at 0x0027ff04: 0x732d instead
jffs2: jffs2_scan_eraseblock(): Magic bitmask 0x1985 not found at 0x0027ff08: 0x6966 instead
1192:58:03 [dhcp4c][Warn] [dhcp4c_inst.c(3703)_dhcp4cRegSendO] Send code[60]fun[0x5b52bc] is replaced by fun[0x5ba7c4]
net_ratelimit: 21 callbacks suppressed
1192:58:03 [DB][Warn] [dbc_def_dev_inf(361)dbGetOnuMode] boardType : F680
1192:58:03 [DB][Warn] [dbc_def_dev_inf(379)dbGetOnuMode] getOnuMode failed, use default mode
1192:58:03 [DB][Warn] [dbc_def_dev_inf(474)dbPersonInitVer] get parameter from Flash failed!VersionMode
1192:58:03 [DB][Warn] [dbc_mgr_tbl.c(1600)dbSetValComm] not find domain table(DevInfo) domain(VersionMode)
1192:58:03 [DB][Error] [dbc_def_dev_inf(619)dbPersonInitVer] get VENDOR_ID  from flash failed !
1192:58:03 [DB][Warn] [dbc_mgr_tbl.c(1600)dbSetValComm] not find domain table(SNTP) domain(isSynFromDriver)
1192:58:03 [DB][Warn] [dbc_mgr_tbl.c(1600)dbSetValComm] not find domain table(FWLevel) domain(NatPower)
1192:58:03 [DB][Warn] [dbc_mgr_tbl.c(1600)dbSetValComm] not find domain table(WLANCfg) domain(LockStatus)
1192:58:03 [DB][Warn] [dbc_mgr_tbl.c(1600)dbSetValComm] not find domain table(WLANCfg) domain(LockStatus)
1192:58:03 [DB][Warn] [dbc_mgr_tbl.c(1600)dbSetValComm] not find domain table(WLANCfg) domain(LockStatus)
1192:58:03 [DB][Warn] [dbc_mgr_tbl.c(1600)dbSetValComm] not find domain table(WLANCfg) domain(LockStatus)
1192:58:03 [DB][Warn] [dbc_mgr_tbl.c(1600)dbSetValComm] not find domain table(WLANCfg) domain(LockStatus)
1192:58:03 [DB][Warn] [dbc_mgr_tbl.c(1600)dbSetValComm] not find domain table(WLANCfg) domain(LockStatus)
1192:58:03 [DB][Warn] [dbc_mgr_tbl.c(1600)dbSetValComm] not find domain table(WLANCfg) domain(LockStatus)
1192:58:03 [DB][Warn] [dbc_mgr_tbl.c(1600)dbSetValComm] not find domain table(WLANCfg) domain(LockStatus)
1192:58:03 [DB][Warn] [dbc_mgr_tbl.c(1600)dbSetValComm] not find domain table(WLANBase) domain(PowerEnhance)
1192:58:03 [DB][Warn] [dbc_mgr_tbl.c(1600)dbSetValComm] not find domain table(WLANBase) domain(PowerEnhance)
1192:58:03 [DB][Error] [dbc_mgr_def.c(75)dbMgrStaticSetI] not find table (WLANCountry)
1192:58:03 [DB][Error] [dbc_mgr_def.c(75)dbMgrStaticSetI] not find table (PDTWLANWAPI)
----------------------------------------------poe not found.
1192:58:03 [DB][Error] [dbc_def_board_i(778)dbDefBoardInfo] GetPoeNum failed!
1192:58:03 [DB][Warn] [dbc_def_gponcfg(83)dbDefGPONCFG] get RegisterID  from flash failed !
1192:58:03 [DB][Error] [dbc_def_gponcfg(128)dbDefGPONCFG] get HexPassword  from flash failed !
1192:58:03 [DB][Warn] [dbc_def_gponcfg(139)dbDefGPONCFG] get Loid from flash failed !
1192:58:03 [DB][Warn] [dbc_def_gponcfg(151)dbDefGPONCFG] get LoidPwd  from flash failed !
1192:58:04 [OSS][Warn] [pc.c(1063)StartProgram] pName(mount) is not CmdProgName(iptables),startMode=0x0000,fpid=65794,Starter(firewall),cmd(*****)
1192:58:04 [DB][Warn] [dbc_person_dev_(176)dbPersonInitHVT] get parameter from Flash failed!HardwareVerTag
1192:58:04 [DB][Warn] [dbc_person_auth(47)dbPersonInitAut] get parameter from Flash failed!Username
1192:58:04 [DB][Warn] [dbc_person_auth(85)dbPersonInitAut] get parameter from Flash failed!Password
1192:58:04 [DB][Warn] [dbc_person_user(56)dbPersonInitUse] get parameter from Flash failed!Language
1192:58:05 [OSS][Warn] [pc.c(1063)StartProgram] pName(iptables) is not CmdProgName(ip6tables),startMode=0x0000,fpid=65794,Starter(firewall),cmd(*****)
1192:58:05 [OSS][Warn] [pc.c(1063)StartProgram] pName(iptables) is not CmdProgName(ip6tables),startMode=0x0000,fpid=65794,Starter(firewall),cmd(*****)
1192:58:05 [OSS][Warn] [pc.c(1063)StartProgram] pName(iptables) is not CmdProgName(ip6tables),startMode=0x0000,fpid=65794,Starter(firewall),cmd(*****)
1192:58:05 [OSS][Warn] [pc.c(1063)StartProgram] pName(iptables) is not CmdProgName(ip6tables),startMode=0x0000,fpid=65794,Starter(firewall),cmd(*****)
1192:58:08 [OSS][Warn] [oss_sche.c(819)RunProcess] RunProcess process[firewall] Event[0x1100] dwUsedTicks[479]
1192:58:08 [upgrade_mgr][Error] [upgrade_mgr.c(2365)UpgradeInit] =====RegionCodeForTools=-14=====
1192:58:08 [dss][Warn] [dss_lla.c(955)DssLlaMain] The Dss' lpMsg is null.
1192:58:1192:58:10 [Klogfile][Error] [(3262)LogFileProcOutput] dbstest AddLogBuf

10 [DB][Crit] [dbc_core.c(429)dbPersonInitPro] VIP_VOIP: Read setmac value to ProtocolSet
1192:58:10 [DB][Error] [dbc_core_compat(892)dbUserInfoTrans] not find table 
GetEnvPara_noproc /userconfig/env_param
1192:58:10 [DB][Error] [dbc_core_compat(2384)dbPrefixModuleT] not find table PrefixIfDG
GetEnvPara_noproc /userconfig/env_param
1192:58:10 [DB][Warn] [dbc_pdt_transfe(514)bIsNeedUpInc] ==== bIsNeedUpInc: [regcode:79]V4.0.10P3T8--->V4.0.10P3T8b
1192:58:10 [DB][Warn] [dbc_pdt_transfe(519)bIsNeedUpInc] Need upgrade Increment!
1192:58:10 [DB][Warn] [dbc_pdt_transfe(1261)dbSetAllRegionU] dbSetAllRegionUpdate!
1192:58:10 [DB][Warn] [dbc_pdt_transfe(1206)dbSetTdPersonal] set telnet Personalized Pwd!
1192:58:10 [DB][Warn] [dbc_pdt_transfe(369)dbQuickSetDm] dbQuickSetDm szTblName:DHCPCComm, iRow:0, szDmName:Priority, lpVal:5
1192:58:10 [DB][Warn] [dbc_pdt_transfe(369)dbQuickSetDm] dbQuickSetDm szTblName:DHCPCComm, iRow:0, szDmName:Dscp, lpVal:46
1192:58:10 [DB][Warn] [dbc_pdt_transfe(369)dbQuickSetDm] dbQuickSetDm szTblName:WANCIP, iRow:1, szDmName:IPAddress, lpVal:0.0.0.0
1192:58:10 [DB][Warn] [dbc_pdt_transfe(369)dbQuickSetDm] dbQuickSetDm szTblName:WANCIP, iRow:1, szDmName:SubnetMask, lpVal:0.0.0.0
1192:58:10 [DB][Warn] [dbc_pdt_transfe(369)dbQuickSetDm] dbQuickSetDm szTblName:FWALG, iRow:0, szDmName:IsSIPAlg, lpVal:0
1192:58:10 [DB][Warn] [dbc_pdt_transfe(369)dbQuickSetDm] dbQuickSetDm szTblName:TelnetCfg, iRow:0, szDmName:TS_UPwd, lpVal:C*2A5>CDF
1192:58:10 [DB][Warn] [dbc_pdt_transfe(369)dbQuickSetDm] dbQuickSetDm szTblName:MgtServer, iRow:0, szDmName:URL, lpVal:https://acaso.sponet.eu/aend
1192:58:10 [DB][Warn] [dbc_pdt_transfe(369)dbQuickSetDm] dbQuickSetDm szTblName:VoIPSIP, iRow:0, szDmName:OptionsAddrType, lpVal:1
1192:58:10 [DB][Warn] [dbc_pdt_transfe(369)dbQuickSetDm] dbQuickSetDm szTblName:VoIPSIP, iRow:1, szDmName:OptionsAddrType, lpVal:1
1192:58:10 [DB][Warn] [dbc_pdt_transfe(369)dbQuickSetDm] dbQuickSetDm szTblName:VoIPFaxT38Cfg, iRow:0, szDmName:Enable, lpVal:0
1192:58:10 [DB][Warn] [dbc_pdt_transfe(369)dbQuickSetDm] dbQuickSetDm szTblName:VoIPFaxT38Cfg, iRow:1, szDmName:Enable, lpVal:0
1192:58:11 [DB][Warn] [dbc_core.c(2152)dbAdaptDataByOn] enter dbAdaptDataByOnuMode
1192:58:11 [OSS][Warn] [oss_sche.c(819)RunProcess] RunProcess process[DB] Event[0x1100] dwUsedTicks[906]
>>>>>>>>>call RegNetIFForWWAN()
1192:58:12 [dhcp6s][Warn] [dhcp6s_main.c(1764)getHwMacByIfNam] Ioctl failed!
1192:58:12 [pon_mgr][Error] [pon_upgrade_cma(238)CmGetPrivatePro] CmGetPrivateProfileInt: GetPrivateProfileInt FAILURE! 
1192:58:12 [pon_mgr][Error] [pon_gpon_adapte(854)pon_O7State_set] CmGetPrivateProfileInt error iRet=-14
1192:58:12 [pon_mgr][Error] [pon_gpon_bcm683(511)pon_EqdCtrl_ini] GetTagParam(TAG_ID_GPON_MAX_SN_ID) error -7
1192:58:12 [dhcp6s][Error] [dhcp6s_main.c(1851)DHCP6SCreateSovendor name = ZTE_B+_G c] invalid interface 
1192:58:12 [
 optical PN(0x60) = 
dhcp6s][Warn] [dhcp6s_main.c(2326)startDhcp6sInst] startDhcp optical PN(0x28) = GN25L95
6sInst, create socket failed
1192:58:12 [usb_stor][Error] [usbbakrst_cmapi(535)CmUsbBakRstSynD] BakFile Name Error(usbbak.cfg)
########br's FDB_MAX[1024]
ADDRCONF(NETDEV_UP): br0: link is not ready
PhyAutoEnable port= 3, rate =0 
ADDRCONF(NETDEV_UP): eth0: link is not ready
PhyAutoEnable port= 2, rate =0 
ADDRCONF(NETDEV_UP): eth1: link is not ready
PhyAutoEnable port= 1, rate =0 
ADDRCONF(NETDEV_UP): eth2: link is not ready
PhyAutoEnable port= 0, rate =0 
ADDRCONF(NETDEV_UP): eth3: link is not ready
PhyAutoEnable port= 4, rate =0 
PhyAutoEnable port= 4, rate =0 
sw_mac_set_onu_agingtime failed!
swdrv_execute_capsweth Failure ret = 1
1192:58:sw_port_set_port_floodcontrol not support now!
15 [ssw_port_set_port_floodcontrol not support now!
witchsw_port_set_port_floodcontrol not support now!
sw_port_set_port_floodcontrol not support now!
_mgr]sw_port_set_port_floodcontrol not support now!
[Errosw_port_set_port_floodcontrol not support now!
r] [pon_swsw_port_set_port_floodcontrol not support now!
siwtc_port_set_port_floodcontrol not support now!
h_comsw_port_set_port_floodcontrol not support now!
m(90)sw_port_set_port_floodcontrol not support now!
ethSetAgingTime] ethSetAgingTime swDoIoctl ioctl failed!
sw_port_set_port_multicastrate not support now!
sw_port_set_port_broadcastrate not support now!
sw_port_set_port_multicastrate not support now!
sw_port_set_port_broadcastrate not support now!
sw_port_set_port_multicastrate not support now!
sw_port_set_port_broadcastrate not support now!
sw_port_set_port_multicastrate not support now!
sw_port_set_port_broadcastrate not support now!
sw_port_set_port_multicastrate not support now!
sw_port_set_port_broadcastrate not support now!
usbcore: registered new interface driver cdc_ether
usbcore: registered new interface driver rndis_host
usbcore: registered new interface driver usbserial
usbserial: USB Serial Driver core
usbcore: registered new interface driver option
USB Serial support registered for GSM modem (1-port)
usbcore: registered new interface driver cdc_acm
cdc_acm: USB Abstract Control Model driver for USB modems and ISDN adapters
ehci_hcd: USB 2.0 'Enhanced' Host Controller (EHCI) Driver
PCI: Enabling device 0000:00:0a.0 (0000 -> 0002)
ehci_hcd 0000:00:0a.0: setting latency timer to 64
ehci_hcd 0000:00:0a.0: EHCI Host Controller
ehci_hcd 0000:00:0a.0: new USB bus registered, assigned bus number 1
ehci_hcd 0000:00:0a.0: Enabling legacy PCI PM
ehci_hcd 0000:00:0a.0: irq 81, io mem 0x15400300
ehci_hcd 0000:00:0a.0: USB f.f started, EHCI 1.00
hub 1-0:1.0: USB hub found
hub 1-0:1.0: 2 ports detected
usb usb1: csp_report_dev_addok 6b1d 200
ohci_hcd: USB 1.1 'Open' Host Controller (OHCI) Driver
PCI: Enabling device 0000:00:09.0 (0000 -> 0002)
ohci_hcd 0000:00:09.0: setting latency timer to 64
ohci_hcd 0000:00:09.0: OHCI Host Controller
ohci_hcd 0000:00:09.0: new USB bus registered, assigned bus number 2
ohci_hcd 0000:00:09.0: irq 80, io mem 0x15400400
hub 2-0:1.0: USB hub found
hub 2-0:1.0: 2 ports detected
usb usb2: csp_report_dev_addok 6b1d 100
g_iUpLinkType=4
1192:58:18 [OSS][Warn] [pc.c(1063)StartProgram] pName(iptables) is not CmdProgName(ip6tables),startMode=0x0000,fpid=65794,Starter(firewall),cmd(*****)
1192:58:18 [OSS][Warn] [pc.c(1063)StartProgram] pName(iptables) is not CmdProgName(ip6tables),startMode=0x0000,fpid=65794,Starter(firewall),cmd(*****)
1192:58:18 [OSS][Warn] [pc.c(1063)StartProgram] pName(ip6tables) is not CmdProgName(),startMode=0x0000,fpid=65794,Starter(firewall),cmd(*****)
1192:58:18 [OSS][Warn] [pc.c(1063)StartProgram] pName(ip6tables) is not CmdProgName(),startMode=0x0000,fpid=65794,Starter(firewall),cmd(*****)
1192:58:18 [OSS][Warn] [pc.c(1063)StartProgram] pName(ip6tables) is not CmdProgName(),startMode=0x0000,fpid=65794,Starter(firewall),cmd(*****)
1192:58:18 [OSS][Warn] [pc.c(1063)StartProgram] pName(ip6tables) is not CmdProgName(),startMode=0x0000,fpid=65794,Starter(firewall),cmd(*****)
ftp alg change port ok!
rtsp alg change port ok!
1192:58:19 [OSS][Warn] [pc.c(1063)StartProgram] pName(create) is not CmdProgName(ebtables),startMode=0x0000,fpid=65794,Starter(firewall),cmd(*****)
1192:58:19 [OSS][Warn] [pc.c(1063)StartProgram] pName(mount) is not CmdProgName(ebtables),startMode=0x0000,fpid=65794,Starter(firewall),cmd(*****)
1192:58:21 [OSS][Warn] [oss_sche.c(819)RunProcess] RunProcess process[firewall] Event[0x1103] dwUsedTicks[380]
1192:58:21 [dns_mgr][Warn] [ifs_api.c(2604)GetRouteIFInfo] parameter is illegal![IGD.WD1.WCD1.WCPPP1]
1192:58:21 [igmpproxy_mgr][Warn] [ifs_api.c(2604)GetRouteIFInfo] parameter is illegal![IGD.WD1.WCD1.WCPPP1]
1192:58:21 [User][Error] [igmp_proxy.c(3159)main] |igmp_proxy| ptr_upstream_ifaceName unspecified
1192:58:21 [dss][Warn] [dss_lla.c(955)DssLlaMain] The Dss' lpMsg is null.
1192:58:21 [prefix_mgr][Error] [prefix_mgr.c(2394)PrefixMgrInit] Init Prefix Lock error!
recv EV_NORMAL_START
1192:58:21 [pon_dev_mgr][Error] [pon_dev_mgr.c(425)get_falsify_def] call  GetTagParam failed!!!!
1192:58:21 [pon_dev_mgr][Error] [pon_dev_mgr.c(1065)FalsfyDefInitVi] call get_falsify_defend_mode failed! iRet = -7
1192:58:21 [portLocate_mgr][Warn] [portLocate_mgr.(561)do_ioctl_of_bri] Ioctl failed!Enable Port Locate ioctl failed
1192:58:21 [portLocate_mgr][Error] [portLocate_mgr.(451)portLocateSetPo] portLocateSetPortLocateEnable failed! 
1192:58:21 [portLocate_mgr][Error] [portLocate_mgr.(196)portLocateStart] portLocateSetPortLocateEnable failed-3 
====================gpon_omci start======================
device eth0 entered promiscuous mode
device eth1 entered promiscuous mode
device eth2 entered promiscuous mode
device eth3 entered promiscuous mode
device eth4 entered promiscuous mode
br0: port 5(eth4) entered forwarding state
br0: port 5(eth4) entered forwarding state
ADDRCONF(NETDEV_CHANGE): br0: link becomes ready
1192:58:23 [ifs_mgr][Warn] [ifs_notifier.c(378)delRegNotifier] parameter is illegal!not found, pid[65810]
1192:58:23 [ifs_mgr][Warn] [ifs_notifier.c(378)delRegNotifier] parameter is illegal!not found, pid[65810]
1192:58:23 [ifs_mgr][Warn] [ifs_notifier.c(378)delRegNotifier] parameter is illegal!not found, pid[65850]
1192:58:23 [User][Error] [igmp_proxy.c(3159)main] |igmp_proxy| ptr_upstream_ifaceName unspecified
<LOGID000000005>1192:58:23 [KIGMPSNP][Error] [br_multicast_se(919)set_trap_unknow] port10 trap_unknow_report_en is 0!
<LOGID000000005>1192:58:23 [KIGMPSNP][Error] [br_multicast_se(962)set_multicast_t] portNum = 10, tagstripe = 0
<LOGID000000005>1192:58:23 [KIGMPSNP][Error] [br_multicast_se(919)set_trap_unknow] port11 trap_unknow_report_en is 0!
<LOGID000000005>1192:58:23 [KIGMPSNP][Error] [br_multicast_se(962)set_multicast_t] portNum = 11, tagstripe = 0
1192:58:23 [upnp_igd][Warn] [gateway.c(332)UPnPIGDExit] Call function failed!CspDeleteFile UPNP IGD file failed
==========================sys process start=========================
=====================omci sender process start=====================
1192:58:23 [BCC][Warn] [bcc_entry.c(242)BCC_TaskEntry] Unk<LOGID000000005>1192:58:23 [KIGMPSNP][Error] [br_multicast_se(919)set_trap_unknow] port12 trap_unknow_report_en is 0!
nown Event=0x00001100 when BCC PowerOn!
Process_Perf's Event(4352) is not support !! 
<LOGID000000005>1192:58:23 [KIGMPSNP][Error] [br_multicast_se(962)set_multicast_t] portNum = 12, tagstripe = 0
Omci get Byte Order is Big-Endian

EPT: kernel::endpoint_open: minor=0.
g_bByteSort(1)

kernel:: endpoint already open 
<LOGID000000005>1192:58:23 [KIGMPSNP][Error] [br_multicast_se(919)set_trap_unknow] port13 trap_unknow_report_en is 0!
<LOGID000000005>1192:58:23 [KIGMPSNP][Error] [br_multicast_se(962)set_multicast_t] portNum = 13, tagstripe = 0
DR_Brcm_Impe_Country_MapGet impetype 270+750//150nF_0_<LOGID000000005>1192:58:23 [KIGMPSNP][Error] [br_multicast_se(919)set_trap_unknow] port14 trap_unknow_report_en is 0!
-7 country 7 
=====<LOGID000000005>1192:58:23 [KIGMPSNP][Error] [br_multicast_se(962)set_multicast_t] portNum = 14, tagstripe = 0
=country 7 
stPcmShimParam.bufp = 0x8db82800
=========================omci process start=========================
OA_Sysdrv_GetTcontBufferSize: value(0) is out of range, use def value:256 
Omci Debug:CmWLANListConfig.dwCount = 8 
nvram_set:name is wps_proc_status
Come in apm_pllStart
pApm->dpll_control = 0xdeaddead
******* DSP: Found BCM6838 *******
******* DSP: In APM Mode *******
gInterruptCounter    = 0xC1279644 
gInterruptErrors     = 0xC1279640 
Binding 0x8ca2d6e8

EPT:boardHalInit completed

EPT:enter vrgEndptInit.
DSP: Interrupt Ids
---------------
InterruptId/Location      = 87/LOW 

DSP: Interrupt Masks
---------------
IrqMask                   = 0x00001300 
IrqMaskLow                = 0x00001300 
IrqMask1                  = 0x00008000 
IrqMaskLow1               = 0x00008000 

DSP: Interrupt Status
-----------------
IrqStatus                 = 0x00000000 
IrqStatusLow              = 0x00000000 
IrqStatus1                = 0x00000000 
IrqStatusLow1             = 0x00000000 
1192:58:25 [webd][Error] [thttpd.c(2349)web_init] register if message success!
1192:58:25 [vlan_module_mgr][Warn] [vlan_module_mgr(457)untagCommand] IFStatus no up,(null)
1192:58:25 [vlan_module_mgr][Warn] [vlan_module_mgr(457)untagCommand] IFStatus no up,(null)
1192:58:25 [vlan_module_mgr][Warn] [vlan_module_mgr(457)untagCommand] IFStatus no up,(null)
1192:58:25 [vlan_module_mgr][Warn] [vlan_module_mgr(457)untagCommand] IFStatus no up,(null)

EPT:vrgEndptInit ok.
dgasp: kerSysRegisterDyingGaspHandler: endpoint registered 

EPT:EndpointInit completed
1192:58:25 [vlan_module_mgr][Warn] [vlan_module_mgr(457)untagCommand] IFStatus no up,(null)
1192:58:25 [vlan_module_mgr][Warn] [vlan_module_mgr(457)untagCommand] IFStatus no up,(null)
hdspVhdLineEquEnable vhdhdl 0x54 ,enable 1
1192:58:25 [vlan_module_mgr][Warn] [vlan_module_mgr(457)untagCommand] IFStatus no up,(null)
1192:58:25 [vlan_module_mgr][Warn] [vlan_module_mgr(457)untagCommand] IFStatus no up,(null)
hdspVhdLineEquEnable vhdhdl 0x55 ,enable 1
 g_MeCtr_Configure=0x00000000,g_MeCtr_CreateMark1=0x00000000,g_MeCtr_CreateMark2=0x00000000
NEXT_STATE(OSS_NORMAL_STATE)
DR_BRCM @ PRINT VOP_TaskEntry : epStatus = 0 EPT not init!	
[OA_Mng_Event_Cfg] Event (0x0500000c) no found! 
1192:58:25 [omci][Error] [pon_dev_cmapi.c(316)CmPonGetIspCode] 04##################call  GetTagParam failed!!!!##################
call CmPonGetIspCode error! dwRet = -7
1192:58:25 [omci][Error] [pon_dev_cmapi.c(365)CmFalsifyGetPdt] ##################call  Get TAG_ID_PRODUCTION_SN failed!!!!##################
call CmFalsifyGetPdtSn error!dwRet = -7
OA_Pondrv_GetTcontMax result:0 tcontmax:8
OA_Pondrv_GetTcontQueueMax result:0 tcontqueuemax:8
[GoldenSea]TcontID[1], policy:0, pqinfo:0
[GoldenSea]TcontID[2], policy:0, pqinfo:0
[GoldenSea]TcontID[3], policy:0, pqinfo:0
[GoldenSea]TcontID[4], policy:0, pqinfo:0
[GoldenSea]TcontID[5], policy:0, pqinfo:0
[GoldenSea]TcontID[6], policy:0, pqinfo:0
[GoldenSea]TcontID[7], policy:0, pqinfo:0
[GoldenSea]TcontID[8], policy:0, pqinfo:0
[FWPM]pInstList.dwCount = 0 
[FWIP]pInstList.dwCount = 0 
SLIC usrline_init

pots:2, boardtype:1
SLIC:slic Driver V3.0.0 Init Finish.
SLIC usrline_ioctl USL_DEV_INIT 
Find a chan 1, cs 0 port 0
Find a chan 0, cs 0 port 1
Init port  0

boardtype BCM68380F_LE9540/BCM68385_LE9541=1
Init port  1

boardtype BCM68380F_LE9540/BCM68385_LE9541=1
SLIC InitLE95xxBoard success.
usrline_ioctl_time_cfg: port 0 
usrline_ioctl_time_cfg: port 1 
SLIC BrcomSetRingVoltage RingVoltage 70 RealValue 47
SLIC BrcomSetCurrent Current 25 
SLIC BrcomSetRingVoltage RingVoltage 70 RealValue 47
SLIC BrcomSetCurrent Current 25 
Sub_SNOntStaticDB:Don't create meclass:350!
1192:58:26 [OSS][Warn] [oss_program.c(322)PcStopProgram] [igmpproxy_mgr] PcStopProgram[pid1145]  Result = -2 failed!!!
1192:58:26 [igmpproxy_mgr][Warn] [ifs_api.c(2604)GetRouteIFInfo] parameter is illegal![IGD.WD1.WCD1.WCPPP1]
GetEnvPara_noproc /userconfig/env_param
GetEnvPara_noproc /userconfig/env_param
GetEnvPara_noproc /userconfig/env_param
GetEnvPara_noproc /userconfig/env_param
[LHP]Restore loid_authencation state wResult 11 G_ONU_REG_Authenstates 0 
1192:58:26 [omci][Error] [pon_upgrade_cma(238)CmGetPrivatePro] CmGetPrivateProfileInt: GetPrivateProfileInt FAILURE! 
Call CmGetPrivateProfileInt error,iRet=-14,KeyName=IsOmciUpgrading
power status is 0x0!!!
1192:58:26 [User][Error] [igmp_proxy.c(3159)main] |igmp_proxy| ptr_upstream_ifaceName unspecified
1192:58:26 [upnp_igd][Warn] [gateway.c(332)UPnPIGDExit] Call function failed!CspDeleteFile UPNP IGD file failed
[OA_Mng_Event_Cfg] Event (0x05010029) no found! 
##Get management vlan about HG failed!##-zhangyc
[OA_Mng_Event_Cfg] Event (0x0501002a) no found! 
[OA_Mng_Event_Cfg] Event (0x0501002a) no found! 
[OA_Mng_Event_Cfg] Event (0x0501002a) no found! 
[OA_Mng_Event_Cfg] Event (0x0501002a) no found! 
1192:58:26 [OSS][Warn] [oss_sche.c(819)RunProcess] RunProcess process[omci] Event[0x3e81] dwUsedTicks[324]
step into Clear_All_Dot1ag_MA
step into Clear_All_Dot1ag_MD
1192:58:27 [pon_mgr][Error] [pon_upgrade_cma(238)CmGetPrivatePro] CmGetPrivateProfileInt: GetPrivateProfileInt FAILURE! 
1192:58:27 [pon_mgr][Error] [pon_gpon_bcm683(197)pon_PonEnable_s] CmGetPrivateProfileInt error iRet=-14

[alecal]ZTE----pon link activate success!
not support alarm event 0x1103.
Process_Perf's Event(4355) is not support !! 
usrline_ioctl_time_cfg: port 0 
usrline_ioctl_time_cfg: port 1 
1192:58:28 [SIP][Warn] [p_sip_tu.c(3838)SIP_TU_DoSCmd] [SIP] user0 send EV_FW_PORT_DOS_DEL
1192:58:28 [SIP][Warn] [p_sip_tu.c(3838)SIP_TU_DoSCmd] [SIP] user1 send EV_FW_PORT_DOS_DEL
1192:58:28 [User][Error] [igmp_proxy.c(3159)main] |igmp_proxy| ptr_upstream_ifaceName unspecified
1192:58:29 [upgrade_mgr][Error] [upgrade_mgr.c(3104)upgradeProcTime] time is 1592318313!
1192:58:29 [upgrade_mgr][Error] [upgrade_mgr.c(2883)IsTagparamOk] tagid 2176, ZTEG
1192:58:29 [upgrade_mgr][Error] [upgrade_mgr.c(3072)IsTagparamSame] two file content not same!
1192:58:29 [upgrade_mgr][Error] [upgrade_mgr.c(3134)upgradeProcTime] copy from /tagparam/paramtag to /userconfig/paramtag success!
1192:58:29 [OSS][Warn] [oss_common.c(675)SSEND] WARNING : [00010102] SSEND  Message[0X9727] to [00010102]  for sender is equal to receiver
1192:58:29 [OSS][Warn] [oss_common.c(675)SSEND] WARNING : [00010102] SSEND  Message[0X9727] to [00010102]  for sender is equal to receiver
1192:58:29 [User][Error] [igmp_proxy.c(3159)main] |igmp_proxy| ptr_upstream_ifaceName unspecified
1192:58:29 [upnp_igd][Warn] [gateway.c(332)UPnPIGDExit] Call function failed!CspDeleteFile UPNP IGD file failed
[ZTE BIND success wl] ======================thread pid=421,rc=0,processor_id=1
GetEnvPara_noproc /userconfig/env_param
1192:58:34 [OSS][Warn] [pc.c(1063)StartProgram] pName(lld2d) is not CmdProgName(/bin/lld2d),startMode=0x0000,fpid=66305,Starter(wlan_config),cmd(*****)
1192:58:34 [OSS][Warn] [pc.c(1063)StartProgram] pName(eapd) is not CmdProgName(/bin/eapd),startMode=0x0000,fpid=66305,Starter(wlan_config),cmd(*****)
1192:58:34 [OSS][Warn] [pc.c(1063)StartProgram] pName(nas) is not CmdProgName(/bin/nas),startMode=0x0000,fpid=66305,Starter(wlan_config),cmd(*****)
nvram_set:name is wl0_ifname
acsd: add map entry for ifname: wlan0
acsd: scan in progress ...
acsd: scan in progress ...
acsd: scan in progress ...
acsd: scan in progress ...
acsd: scan in progress ...
GetEnvPara_noproc /userconfig/env_param
acsd: scan in progress ...
acsd: scan in progress ...
acsd: scan in progress ...
acsd: scan in progress ...
acsd: scan in progress ...
acsd: scan in progress ...
acsd: scan in progress ...
acsd: selected channel spec: 0x1009
new nwcb's wanc 
1192:58:39 [OSS][Warn] [oss_sche.c(819)RunProcess] RunProcess process[wlan_config] Event[0xa205] dwUsedTicks[1654]
device wlan0 entered promiscuous mode
br0: port 6(wlan0) entered forwarding state
br0: port 6(wlan0) entered forwarding state
<LOGID000000005>1192:58:40 [KIGMPSNP][Error] [br_multicast_se(919)set_trap_unknow] port1 trap_unknow_report_en is 0!
wps_led_update:val=0,wps_prevstatus=0
<LOGID000000005>1192:58:40 [KIGMPSNP][Error] [br_multicast_se(962)set_multicast_t] portNum = 1, tagstripe = 0
GetEnvPara_noproc /userconfig/env_param
1192:58:41 [pon_dev_mgr][Error] [pon_dev_mgr.c(425)get_falsify_def] call  GetTagParam failed!!!!
1192:58:41 [pon_dev_mgr][Error] [pon_dev_mgr.c(1030)FalsfyDefInit] call get_falsify_defend_mode failed! iRet = -7
1192:58:45 [wlan_config][Error] [pon_wlan_adapte(1675)qtn_wlan_do_vla] vlan_set failed <code=-1042>!
1192:58:45 [wlan_config][Error] [pon_wlan_adapte(1686)qtn_wlan_do_vla] vlan_set failed <code=-1042>!
1192:58:45 [wlan_config][Error] [pon_wlan_adapte(1686)qtn_wlan_do_vla] vlan_set failed <code=-1042>!
1192:58:45 [wlan_config][Error] [pon_wlan_adapte(1686)qtn_wlan_do_vla] vlan_set failed <code=-1042>!
1192:58:45 [wlan_config][Error] [pon_wlan_adapte(1686)qtn_wlan_do_vla] vlan_set failed <code=-1042>!
1192:58:45 [wlan_config][Error] [pon_wlan_adapte(1693)qtn_wlan_do_vla] vlan_disable failed <code=-1042>!
1192:58:45 [wlan_config][Error] [pon_wlan_adapte(1706)qtn_wlan_do_vla] vlan_disable failed <code=-1042>!
1192:58:46 [wlan_config][Error] [pon_wlan_adapte(1706)qtn_wlan_do_vla] vlan_disable failed <code=-1042>!
1192:58:46 [wlan_config][Error] [pon_wlan_adapte(1706)qtn_wlan_do_vla] vlan_disable failed <code=-1042>!
1192:58:46 [wlan_config][Error] [pon_wlan_adapte(1706)qtn_wlan_do_vla] vlan_disable failed <code=-1042>!
GetEnvPara_noproc /userconfig/env_param
1192:58:49 [wlan_config][Warn] [ifconfig.c(694)ifconfig] Ioctl failed!SIOCDEVCOMMON
1192:58:49 [wlan_config][Warn] [ifconfig.c(1158)cspifconfig] Call function failed!ifconfig config error!
1192:58:49 [OSS][Warn] [oss_sche.c(819)RunProcess] RunProcess process[wlan_config] Event[0xa205] dwUsedTicks[853]
1192:58:49 [ifs_mgr][Warn] [ifconfig.c(694)ifconfig] Ioctl failed!SIOCDEVCOMMON
1192:58:49 [ifs_mgr][Warn] [ifconfig.c(1158)cspifconfig] Call function failed!ifconfig config error!
<LOGID000000005>1192:58:49 [KIGMPSNP][Error] [br_multicast_se(919)set_trap_unknow] port6 trap_unknow_report_en is 0!
<LOGID000000005>1192:58:49 [KIGMPSNP][Error] [br_multicast_se(962)set_multicast_t] portNum = 6, tagstripe = 0
GetEnvPara_noproc /userconfig/env_param
GetEnvPara_noproc /userconfig/env_param
GetEnvPara_noproc /userconfig/env_param
